…
2. How many genera and species are represented in the data? What are the total number of observations? Which species is most/ least frequently sampled in the study?

```r
deserts %>% 
count(species) %>% 
arrange(desc(n))
```

```
## # A tibble: 40 x 2
##    species          n
##    <chr>        <int>
##  1 merriami     10596
##  2 penicillatus  3123
##  3 ordii         3027
##  4 baileyi       2891
##  5 megalotis     2609
##  6 spectabilis   2504
##  7 torridus      2249
##  8 flavus        1597
##  9 eremicus      1299
## 10 albigula      1252
## # ... with 30 more rows
```

```r
deserts %>% 
  distinct(genus)
```

```
## # A tibble: 26 x 1
##    genus          
##    <chr>          
##  1 Neotoma        
##  2 Dipodomys      
##  3 Perognathus    
##  4 Peromyscus     
##  5 Chaetodipus    
##  6 Sigmodon       
##  7 Onychomys      
##  8 Spermophilus   
##  9 Reithrodontomys
## 10 Sylvilagus     
## # ... with 16 more rows
```

Genera n=34786 (found from summary) and 26 distinct genera. 

```r
deserts %>% 
  distinct(species)
```

```
## # A tibble: 40 x 1
##    species     
##    <chr>       
##  1 albigula    
##  2 merriami    
##  3 flavus      
##  4 eremicus    
##  5 spectabilis 
##  6 penicillatus
##  7 hispidus    
##  8 torridus    
##  9 ordii       
## 10 sp.         
## # ... with 30 more rows
```
…
