…
```r
gapminder
```

```
## # A tibble: 1,704 x 6
##    country     continent  year lifeExp      pop gdpPercap
##    <fct>       <fct>     <int>   <dbl>    <int>     <dbl>
##  1 Afghanistan Asia       1952    28.8  8425333      779.
##  2 Afghanistan Asia       1957    30.3  9240934      821.
##  3 Afghanistan Asia       1962    32.0 10267083      853.
##  4 Afghanistan Asia       1967    34.0 11537966      836.
##  5 Afghanistan Asia       1972    36.1 13079460      740.
##  6 Afghanistan Asia       1977    38.4 14880372      786.
##  7 Afghanistan Asia       1982    39.9 12881816      978.
##  8 Afghanistan Asia       1987    40.8 13867957      852.
##  9 Afghanistan Asia       1992    41.7 16317921      649.
## 10 Afghanistan Asia       1997    41.8 22227415      635.
## # ... with 1,694 more rows
```
…
**4. Your answer above doesn't tell the whole story since life expectancy varies by region. Make a summary that shows the min, mean, and max life expectancy by continent for all years represented in the data.**

```r
gapminder %>% 
  group_by(country) %>% 
  summarize(min_life =min(lifeExp),
            max_life=max(lifeExp),
           mean_life=mean(lifeExp))
```

```
## # A tibble: 142 x 4
##    country     min_life max_life mean_life
##    <fct>          <dbl>    <dbl>     <dbl>
##  1 Afghanistan     28.8     43.8      37.5
##  2 Albania         55.2     76.4      68.4
##  3 Algeria         43.1     72.3      59.0
##  4 Angola          30.0     42.7      37.9
##  5 Argentina       62.5     75.3      69.1
##  6 Australia       69.1     81.2      74.7
##  7 Austria         66.8     79.8      73.1
##  8 Bahrain         50.9     75.6      65.6
##  9 Bangladesh      37.5     64.1      49.8
## 10 Belgium         68       79.4      73.6
## # ... with 132 more rows
```
…
**7. Which countries have had the largest population growth since 1952?**

```r
gapminder %>% 
  select(year, country, pop) %>% 
  filter(year == 1952 | year == 2007) %>% 
  pivot_wider(names_from = year, values_from = pop) %>% 
  mutate(difference = `2007`-`1952`) %>% 
  arrange(desc(difference))
```

```
## # A tibble: 142 x 4
##    country          `1952`     `2007` difference
##    <fct>             <int>      <int>      <int>
##  1 China         556263527 1318683096  762419569
##  2 India         372000000 1110396331  738396331
##  3 United States 157553000  301139947  143586947
##  4 Indonesia      82052000  223547000  141495000
##  5 Brazil         56602560  190010647  133408087
##  6 Pakistan       41346560  169270617  127924057
##  7 Bangladesh     46886859  150448339  103561480
##  8 Nigeria        33119096  135031164  101912068
##  9 Mexico         30144317  108700891   78556574
## 10 Philippines    22438691   91077287   68638596
## # ... with 132 more rows
```
…
