…
**4. What taxa are represented in the `homerange` data frame? Make a new data frame `taxa` that is restricted to taxon, common name, class, order, family, genus, species.** 

```r
homerange %>%  
  select(taxon, common.name, class, order, family, genus, species)
```

```
## # A tibble: 569 × 7
##    taxon         common.name             class        order family genus species
##    <fct>         <chr>                   <chr>        <fct> <chr>  <chr> <chr>  
##  1 lake fishes   american eel            actinoptery… angu… angui… angu… rostra…
##  2 river fishes  blacktail redhorse      actinoptery… cypr… catos… moxo… poecil…
##  3 river fishes  central stoneroller     actinoptery… cypr… cypri… camp… anomal…
##  4 river fishes  rosyside dace           actinoptery… cypr… cypri… clin… fundul…
##  5 river fishes  longnose dace           actinoptery… cypr… cypri… rhin… catara…
##  6 river fishes  muskellunge             actinoptery… esoc… esoci… esox  masqui…
##  7 marine fishes pollack                 actinoptery… gadi… gadid… poll… pollac…
##  8 marine fishes saithe                  actinoptery… gadi… gadid… poll… virens 
##  9 marine fishes lined surgeonfish       actinoptery… perc… acant… acan… lineat…
## 10 marine fishes orangespine unicornfish actinoptery… perc… acant… naso  litura…
## # … with 559 more rows
```
…
**6. The species in `homerange` are also classified into trophic guilds. How many species are represented in each trophic guild.**  

```r
homerange %>% 
  group_by(species, trophic.guild) %>% 
count(species)
```

```
## # A tibble: 534 × 3
## # Groups:   species, trophic.guild [534]
##    species          trophic.guild     n
##    <chr>            <chr>         <int>
##  1 aberti           herbivore         2
##  2 adspersus        carnivore         1
##  3 aedon            carnivore         1
##  4 aegyptius        herbivore         1
##  5 aethiopicus      herbivore         1
##  6 africaeaustralis herbivore         1
##  7 africana         herbivore         1
##  8 africanus        herbivore         1
##  9 agassizii        herbivore         1
## 10 agrestis         herbivore         1
## # … with 524 more rows
```
…
**10. As measured by the data, which snake species has the smallest homerange? Show all of your work, please. Look this species up online and tell me about it!** **Snake is found in taxon column**    

```r
snakes <- homerange %>% select(mean.hra.m2, family, taxon, genus, species) %>% 
  filter(taxon == "snakes") %>% 
  arrange(mean.hra.m2)
snakes
```

```
## # A tibble: 41 × 5
##    mean.hra.m2 family     taxon  genus       species     
##          <dbl> <chr>      <fct>  <chr>       <chr>       
##  1        200  viperidae  snakes bitis       schneideri  
##  2        253  colubridae snakes carphopis   viridis     
##  3        600  colubridae snakes thamnophis  butleri     
##  4        700  colubridae snakes carphopis   vermis      
##  5       2400  viperidae  snakes vipera      latastei    
##  6       2614. viperidae  snakes gloydius    shedaoensis 
##  7       6476  colubridae snakes diadophis   punctatus   
##  8      10655  viperidae  snakes agkistrodon piscivorous 
##  9      15400  colubridae snakes oocatochus  rufodorsatus
## 10      17400  colubridae snakes pituophis   catenifer   
## # … with 31 more rows
```
…
